[gd_scene load_steps=2 format=2]

[ext_resource path="res://res/scripts/components/paddle_shifts.gd" type="Script" id=1]

[node name="PaddleShifts" type="Control"]
margin_right = 80.0
margin_bottom = 40.0
script = ExtResource( 1 )

[node name="ShiftDown" type="ColorRect" parent="."]
margin_right = 40.0
margin_bottom = 40.0
color = Color( 1, 0, 0, 1 )

[node name="ShiftUp" type="ColorRect" parent="."]
margin_left = 40.0
margin_right = 80.0
margin_bottom = 40.0
color = Color( 0.101961, 1, 0, 1 )
