[gd_scene load_steps=2 format=2]

[ext_resource path="res://res/scripts/components/pedal_graph.gd" type="Script" id=1]

[node name="PedalGraph" type="Control"]
margin_right = 188.0
margin_bottom = 150.0
script = ExtResource( 1 )

[node name="GraphBG" type="ColorRect" parent="."]
margin_top = 15.0
margin_right = 187.0
margin_bottom = 150.0
color = Color( 0.27451, 0.27451, 0.27451, 0.376471 )
__meta__ = {
"_edit_lock_": true
}

[node name="GraphLines" type="Control" parent="."]
margin_right = 189.0
margin_bottom = 135.0
__meta__ = {
"_edit_lock_": true
}

[node name="BrakeLine" type="Line2D" parent="GraphLines"]
position = Vector2( 1, 134 )
scale = Vector2( 1.84631, 1.34365 )
points = PoolVector2Array( 0, 0.0997314 )
width = 1.0
default_color = Color( 1, 0, 0, 1 )
joint_mode = 2
begin_cap_mode = 2
end_cap_mode = 2
__meta__ = {
"_edit_lock_": true
}

[node name="GasLine" type="Line2D" parent="GraphLines"]
position = Vector2( 1, 134 )
scale = Vector2( 1.84631, 1.34365 )
points = PoolVector2Array( 0, 0.0997314 )
width = 1.0
default_color = Color( 0, 1, 0, 1 )
joint_mode = 2
begin_cap_mode = 2
end_cap_mode = 2
__meta__ = {
"_edit_lock_": true
}

[node name="UpShiftLine" type="Line2D" parent="."]
visible = false
position = Vector2( -13, 3 )
points = PoolVector2Array( 0, 10, 5, 0, 10, 10 )
width = 3.0
default_color = Color( 0.270588, 0.392157, 1, 0.721569 )
__meta__ = {
"_edit_lock_": true
}

[node name="DownShiftLine" type="Line2D" parent="."]
visible = false
position = Vector2( -13, 17 )
points = PoolVector2Array( 0, 0, 5, 10, 10, 0 )
width = 3.0
default_color = Color( 0.862745, 0.607843, 0, 0.721569 )
__meta__ = {
"_edit_lock_": true
}

[node name="ShiftsContainer" type="Node2D" parent="."]
